Your Output:

[Compilation Error]
./student_src/program.c:8:2: error: expected ‘=’, ‘,’, ‘;’, ‘asm’ or ‘__attribute__’ before ‘printf’
    8 |  printf("Done!!");
      |  ^~~~~~
./student_src/program.c:9:1: error: expected identifier or ‘(’ before ‘}’ token
    9 | }
      | ^


Expected Output:
Done!

Feedback: 
Try Again!

Grade: 0